{
    "variable": [
        {
            "id": "baseUrl",
            "key": "baseUrl",
            "type": "string",
            "name": "string",
            "value": "http:\/\/localhost"
        }
    ],
    "info": {
        "name": "Test test test",
        "_postman_id": "9f732abf-9509-4d06-8b61-ec740c2fe6b6",
        "description": "",
        "schema": "https:\/\/schema.getpostman.com\/json\/collection\/v2.1.0\/collection.json"
    },
    "item": [
        {
            "name": "Endpoints",
            "description": "",
            "item": [
                {
                    "name": "api\/v1\/products",
                    "request": {
                        "url": {
                            "host": "{{baseUrl}}",
                            "path": "api\/v1\/products",
                            "query": [
                                {
                                    "key": "page",
                                    "value": "1",
                                    "description": "Page.",
                                    "disabled": false
                                },
                                {
                                    "key": "limit",
                                    "value": "5",
                                    "description": "Limit.",
                                    "disabled": false
                                }
                            ],
                            "raw": "{{baseUrl}}\/api\/v1\/products?page=1&limit=5"
                        },
                        "method": "GET",
                        "header": [
                            {
                                "key": "Content-Type",
                                "value": "application\/json"
                            },
                            {
                                "key": "Accept",
                                "value": "application\/json"
                            }
                        ],
                        "body": null,
                        "description": "",
                        "auth": {
                            "type": "noauth"
                        }
                    },
                    "response": [
                        {
                            "header": [
                                {
                                    "key": "cache-control",
                                    "value": "no-cache, private"
                                },
                                {
                                    "key": "content-type",
                                    "value": "application\/json"
                                }
                            ],
                            "code": 200,
                            "body": "{\"current_page\":1,\"data\":[{\"id\":0,\"name\":\"H&M t-shirt blue\",\"description\":null,\"price\":500,\"published_at\":\"2022-12-06 17:39:21\",\"created_at\":\"2022-12-06T17:39:21.000000Z\",\"updated_at\":\"2022-12-06T17:39:21.000000Z\"},{\"id\":9223372036854775807,\"name\":\"Springfild jeans white\",\"description\":null,\"price\":400,\"published_at\":\"2022-12-06 17:39:21\",\"created_at\":\"2022-12-06T17:39:21.000000Z\",\"updated_at\":\"2022-12-06T17:39:21.000000Z\"},{\"id\":47,\"name\":\"Modis coat red\",\"description\":null,\"price\":900,\"published_at\":\"2022-12-06 17:39:21\",\"created_at\":\"2022-12-06T17:39:21.000000Z\",\"updated_at\":\"2022-12-06T17:39:21.000000Z\"},{\"id\":9223372036854775807,\"name\":\"Springfild dress  black\",\"description\":null,\"price\":400,\"published_at\":\"2022-12-06 17:39:20\",\"created_at\":\"2022-12-06T17:39:20.000000Z\",\"updated_at\":\"2022-12-06T17:39:20.000000Z\"},{\"id\":0,\"name\":\"Springfild skirt red\",\"description\":null,\"price\":700,\"published_at\":\"2022-12-06 17:39:21\",\"created_at\":\"2022-12-06T17:39:21.000000Z\",\"updated_at\":\"2022-12-06T17:39:21.000000Z\"}],\"first_page_url\":\"http:\\\/\\\/localhost\\\/api\\\/v1\\\/products?page=1\",\"from\":1,\"last_page\":20,\"last_page_url\":\"http:\\\/\\\/localhost\\\/api\\\/v1\\\/products?page=20\",\"links\":[{\"url\":null,\"label\":\"pagination.previous\",\"active\":false},{\"url\":\"http:\\\/\\\/localhost\\\/api\\\/v1\\\/products?page=1\",\"label\":\"1\",\"active\":true},{\"url\":\"http:\\\/\\\/localhost\\\/api\\\/v1\\\/products?page=2\",\"label\":\"2\",\"active\":false},{\"url\":\"http:\\\/\\\/localhost\\\/api\\\/v1\\\/products?page=3\",\"label\":\"3\",\"active\":false},{\"url\":\"http:\\\/\\\/localhost\\\/api\\\/v1\\\/products?page=4\",\"label\":\"4\",\"active\":false},{\"url\":\"http:\\\/\\\/localhost\\\/api\\\/v1\\\/products?page=5\",\"label\":\"5\",\"active\":false},{\"url\":\"http:\\\/\\\/localhost\\\/api\\\/v1\\\/products?page=6\",\"label\":\"6\",\"active\":false},{\"url\":\"http:\\\/\\\/localhost\\\/api\\\/v1\\\/products?page=7\",\"label\":\"7\",\"active\":false},{\"url\":\"http:\\\/\\\/localhost\\\/api\\\/v1\\\/products?page=8\",\"label\":\"8\",\"active\":false},{\"url\":\"http:\\\/\\\/localhost\\\/api\\\/v1\\\/products?page=9\",\"label\":\"9\",\"active\":false},{\"url\":\"http:\\\/\\\/localhost\\\/api\\\/v1\\\/products?page=10\",\"label\":\"10\",\"active\":false},{\"url\":null,\"label\":\"...\",\"active\":false},{\"url\":\"http:\\\/\\\/localhost\\\/api\\\/v1\\\/products?page=19\",\"label\":\"19\",\"active\":false},{\"url\":\"http:\\\/\\\/localhost\\\/api\\\/v1\\\/products?page=20\",\"label\":\"20\",\"active\":false},{\"url\":\"http:\\\/\\\/localhost\\\/api\\\/v1\\\/products?page=2\",\"label\":\"pagination.next\",\"active\":false}],\"next_page_url\":\"http:\\\/\\\/localhost\\\/api\\\/v1\\\/products?page=2\",\"path\":\"http:\\\/\\\/localhost\\\/api\\\/v1\\\/products\",\"per_page\":5,\"prev_page_url\":null,\"to\":5,\"total\":100}",
                            "name": ""
                        }
                    ]
                },
                {
                    "name": "api\/v1\/order\/create",
                    "request": {
                        "url": {
                            "host": "{{baseUrl}}",
                            "path": "api\/v1\/order\/create",
                            "query": [],
                            "raw": "{{baseUrl}}\/api\/v1\/order\/create"
                        },
                        "method": "POST",
                        "header": [
                            {
                                "key": "Content-Type",
                                "value": "application\/json"
                            },
                            {
                                "key": "Accept",
                                "value": "application\/json"
                            }
                        ],
                        "body": {
                            "mode": "raw",
                            "raw": "{\"user_id\":\"384b0e3a-ce7f-4caf-8512-97cf1dcd0a11\",\"products\":[\"est\"]}"
                        },
                        "description": "",
                        "auth": {
                            "type": "noauth"
                        }
                    },
                    "response": []
                }
            ]
        }
    ],
    "auth": {
        "type": "noauth"
    }
}