## Autogenerated by Scribe. DO NOT MODIFY.

name: Endpoints
description: ''
endpoints:
  -
    httpMethods:
      - GET
    uri: api/v1/products
    metadata:
      title: ''
      description: ''
      authenticated: false
      custom: []
    headers:
      Content-Type: application/json
      Accept: application/json
    urlParameters: []
    queryParameters:
      page:
        name: page
        description: Page.
        required: true
        example: 1
        type: integer
        custom: []
      limit:
        name: limit
        description: Limit.
        required: false
        example: 5
        type: integer
        custom: []
    bodyParameters: []
    responses:
      -
        status: 200
        content: '{"current_page":1,"data":[{"id":0,"name":"H&M t-shirt blue","description":null,"price":500,"published_at":"2022-12-06 17:39:21","created_at":"2022-12-06T17:39:21.000000Z","updated_at":"2022-12-06T17:39:21.000000Z"},{"id":9223372036854775807,"name":"Springfild jeans white","description":null,"price":400,"published_at":"2022-12-06 17:39:21","created_at":"2022-12-06T17:39:21.000000Z","updated_at":"2022-12-06T17:39:21.000000Z"},{"id":47,"name":"Modis coat red","description":null,"price":900,"published_at":"2022-12-06 17:39:21","created_at":"2022-12-06T17:39:21.000000Z","updated_at":"2022-12-06T17:39:21.000000Z"},{"id":9223372036854775807,"name":"Springfild dress  black","description":null,"price":400,"published_at":"2022-12-06 17:39:20","created_at":"2022-12-06T17:39:20.000000Z","updated_at":"2022-12-06T17:39:20.000000Z"},{"id":0,"name":"Springfild skirt red","description":null,"price":700,"published_at":"2022-12-06 17:39:21","created_at":"2022-12-06T17:39:21.000000Z","updated_at":"2022-12-06T17:39:21.000000Z"}],"first_page_url":"http:\/\/localhost\/api\/v1\/products?page=1","from":1,"last_page":20,"last_page_url":"http:\/\/localhost\/api\/v1\/products?page=20","links":[{"url":null,"label":"pagination.previous","active":false},{"url":"http:\/\/localhost\/api\/v1\/products?page=1","label":"1","active":true},{"url":"http:\/\/localhost\/api\/v1\/products?page=2","label":"2","active":false},{"url":"http:\/\/localhost\/api\/v1\/products?page=3","label":"3","active":false},{"url":"http:\/\/localhost\/api\/v1\/products?page=4","label":"4","active":false},{"url":"http:\/\/localhost\/api\/v1\/products?page=5","label":"5","active":false},{"url":"http:\/\/localhost\/api\/v1\/products?page=6","label":"6","active":false},{"url":"http:\/\/localhost\/api\/v1\/products?page=7","label":"7","active":false},{"url":"http:\/\/localhost\/api\/v1\/products?page=8","label":"8","active":false},{"url":"http:\/\/localhost\/api\/v1\/products?page=9","label":"9","active":false},{"url":"http:\/\/localhost\/api\/v1\/products?page=10","label":"10","active":false},{"url":null,"label":"...","active":false},{"url":"http:\/\/localhost\/api\/v1\/products?page=19","label":"19","active":false},{"url":"http:\/\/localhost\/api\/v1\/products?page=20","label":"20","active":false},{"url":"http:\/\/localhost\/api\/v1\/products?page=2","label":"pagination.next","active":false}],"next_page_url":"http:\/\/localhost\/api\/v1\/products?page=2","path":"http:\/\/localhost\/api\/v1\/products","per_page":5,"prev_page_url":null,"to":5,"total":100}'
        headers:
          cache-control: 'no-cache, private'
          content-type: application/json
        description: null
    responseFields: []
  -
    httpMethods:
      - POST
    uri: api/v1/order/create
    metadata:
      title: ''
      description: ''
      authenticated: false
      custom: []
    headers:
      Content-Type: application/json
      Accept: application/json
    urlParameters: []
    queryParameters: []
    bodyParameters:
      user_id:
        name: user_id
        description: 'User id.'
        required: false
        example: 384b0e3a-ce7f-4caf-8512-97cf1dcd0a11
        type: string
        custom: []
      products:
        name: products
        description: Products.
        required: false
        example:
          - est
        type: 'string[]'
        custom: []
    responses: []
    responseFields: []
